[
  {
    "company": "Dogs & Cats Software", // Employer.name
    "location": "Helsinki", // Position.location
    "type": "Full-time", // Position.jobType
    "position": "Web Developer", // Position.title
    "specialty": "Front-end", // covered with Position.title and Position.description
    "seniority": "Senior", // Position.requiredExperience and Employee.workExperience
    "description": "Lorem ipsum dolor sit amet, consectetur adipiscing elit. Donec id tempor mauris. Fusce eu enim sed magna mollis mollis. Sed tempus ut erat id dapibus. Nullam vel tortor vitae nisl tempor semper.", // Position.description
    "skills": [
      // Position.requiredSkills
      "TypeScript",
      "React",
      "Node.js",
      "Jest",
      "GitHub",
      "AWS",
      "Less",
      "Sass",
      "Microservices"
    ],
    "image": "template.jpg" // Position.img
  },
  {
    "company": "Dogs & Cats Software",
    "location": "Helsinki",
    "type": "Full-time",
    "position": "UI developer",
    "specialty": "Full stack",
    "seniority": "Mid-senior",
    "description": "Lorem ipsum dolor sit amet, consectetur adipiscing elit. Donec id tempor mauris. Fusce eu enim sed magna mollis mollis. Sed tempus ut erat id dapibus. Nullam vel tortor vitae nisl tempor semper.",
    "skills": [
      "TypeScript",
      "JavaScript",
      "React",
      "Node.js",
      "Contentful",
      "Sass",
      "Figma",
      "Adobe CC"
    ],
    "image": "template.jpg"
  },
  {
    "company": "Shaky Tree Company",
    "location": "Tampere",
    "type": "Part-time",
    "position": "Angular Developer",
    "specialty": "Front-end",
    "seniority": "Junior",
    "description": "Lorem ipsum dolor sit amet, consectetur adipiscing elit. Donec id tempor mauris. Fusce eu enim sed magna mollis mollis. Sed tempus ut erat id dapibus. Nullam vel tortor vitae nisl tempor semper.",
    "skills": [
      "Angular",
      "TypeScript",
      "Cypress",
      "Jasmin",
      "Web Components",
      "Stencil"
    ],
    "image": "template.jpg"
  },
  {
    "company": "Cookie Company",
    "location": "Helsinki",
    "type": "Full-time",
    "position": "Software Engineer",
    "specialty": "Full stack",
    "seniority": "Junior",
    "description": "Lorem ipsum dolor sit amet, consectetur adipiscing elit. Donec id tempor mauris. Fusce eu enim sed magna mollis mollis. Sed tempus ut erat id dapibus. Nullam vel tortor vitae nisl tempor semper.",
    "skills": ["Java", "Spring Boot", "MySQL"],
    "image": "template.jpg"
  },
  {
    "company": "Cookie Company",
    "location": "Helsinki",
    "type": "Full-time",
    "position": "Software Engineer",
    "specialty": "Full stack",
    "seniority": "Junior",
    "description": "Lorem ipsum dolor sit amet, consectetur adipiscing elit. Donec id tempor mauris. Fusce eu enim sed magna mollis mollis. Sed tempus ut erat id dapibus. Nullam vel tortor vitae nisl tempor semper.",
    "skills": ["Java", "Spring Boot", "MySQL", "Vue.js", "AWS", "Firebase"],
    "image": "template.jpg"
  },
  {
    "company": "Wizards of Web",
    "location": "Helsinki",
    "type": "Freelance",
    "position": "Web Developer",
    "specialty": "Full stack",
    "seniority": "Mid-senior",
    "description": "Lorem ipsum dolor sit amet, consectetur adipiscing elit. Donec id tempor mauris. Fusce eu enim sed magna mollis mollis. Sed tempus ut erat id dapibus. Nullam vel tortor vitae nisl tempor semper.",
    "skills": [
      "Gatsby",
      "React",
      "JavaScript",
      "PostgreSQL",
      "AWS",
      "Wordpress",
      "Vue.js"
    ],
    "image": "template.jpg"
  },
  {
    "company": "Mokia",
    "location": "Turku",
    "type": "Full-time",
    "position": "Web Developer",
    "specialty": "Front-end",
    "seniority": "Junior",
    "description": "Lorem ipsum dolor sit amet, consectetur adipiscing elit. Donec id tempor mauris. Fusce eu enim sed magna mollis mollis. Sed tempus ut erat id dapibus. Nullam vel tortor vitae nisl tempor semper.",
    "skills": ["GitHub", "React", "HTML5", "CSS3", "React Native"],
    "image": "template.jpg"
  },
  {
    "company": "Green Spark",
    "location": "Espoo",
    "type": "Part-time",
    "position": "Software Engineer",
    "specialty": "Back-end",
    "seniority": "Mid-senior",
    "description": "Lorem ipsum dolor sit amet, consectetur adipiscing elit. Donec id tempor mauris. Fusce eu enim sed magna mollis mollis. Sed tempus ut erat id dapibus. Nullam vel tortor vitae nisl tempor semper.",
    "skills": [
      "MongoDB",
      "AWS",
      "Jenkins",
      "Node.js",
      "TypeScript",
      "Jest",
      "Mocha",
      "Angular",
      "Docker"
    ],
    "image": "template.jpg"
  },
  {
    "company": "Automagic Webstores",
    "location": "Vantaa",
    "type": "Full-time",
    "position": "Software Developer",
    "specialty": "Full-stack",
    "seniority": "Senior",
    "description": "Lorem ipsum dolor sit amet, consectetur adipiscing elit. Donec id tempor mauris. Fusce eu enim sed magna mollis mollis. Sed tempus ut erat id dapibus. Nullam vel tortor vitae nisl tempor semper.",
    "skills": [
      "Python",
      "TenserFlow",
      "Azure",
      "AWS",
      "Node.js",
      "TypeScript",
      "Git",
      "Docker",
      "Kubernetes"
    ],
    "image": "template.jpg"
  },
  {
    "company": "Snowman Software",
    "location": "Turku",
    "type": "Full-time",
    "position": "Software Engineer",
    "specialty": "Backend",
    "seniority": "Mid-senior",
    "description": "Lorem ipsum dolor sit amet, consectetur adipiscing elit. Donec id tempor mauris. Fusce eu enim sed magna mollis mollis. Sed tempus ut erat id dapibus. Nullam vel tortor vitae nisl tempor semper.",
    "skills": [
      "Jenkins",
      "Docker",
      "Azure",
      "AWS",
      "Node.js",
      "TypeScript",
      "Git",
      "PostgreSQL",
      "Firebase",
      "Rust"
    ],
    "image": "template.jpg"
  }
]
